{"results":[{"zip":"10001","lon":"-73.98999786376953","state":"NY","members":"130330","lat":"40.75","country":"us","city":"New York"},{"zip":"60601","lon":"-87.62999725341797","state":"IL","members":"53857","lat":"41.88999938964844","country":"us","city":"Chicago"},{"zip":"","lon":"-0.10000000149011612","state":"","members":"49984","lat":"51.52000045776367","country":"gb","city":"London"},{"zip":"20001","lon":"-77.0199966430664","state":"DC","members":"40749","lat":"38.90999984741211","country":"us","city":"Washington"},{"zip":"92101","lon":"-117.16999816894531","state":"CA","members":"40202","lat":"32.720001220703125","country":"us","city":"San Diego"},{"zip":"77001","lon":"-95.22000122070312","state":"TX","members":"37815","lat":"29.719999313354492","country":"us","city":"Houston"},{"zip":"M3H 6A7","lon":"-79.44000244140625","state":"ON","members":"36789","lat":"43.7599983215332","country":"ca","city":"Toronto"},{"zip":"19101","lon":"-75.13999938964844","state":"PA","members":"36594","lat":"40.0","country":"us","city":"Philadelphia"},{"zip":"30301","lon":"-84.4000015258789","state":"GA","members":"35223","lat":"33.86000061035156","country":"us","city":"Atlanta"},{"zip":"98101","lon":"-122.33000183105469","state":"WA","members":"34781","lat":"47.61000061035156","country":"us","city":"Seattle"}],"meta":{"lon":"","count":10,"next":"http:\/\/api.meetup.com\/cities\/?order=members&key=4824d125e1c13f6253694f65383d33&page=10&format=json&offset=1","link":"http:\/\/api.meetup.com\/cities\/","total_count":82705,"url":"http:\/\/api.meetup.com\/cities\/?order=members&key=4824d125e1c13f6253694f65383d33&page=10&format=json&offset=0","id":"","title":"Meetup Cities","updated":"2008-10-21 09:10:41 EDT","description":"API method for accessing meetup cities","method":"Cities","lat":""}}