{"results":[{"group_name":"The Vancouver Ruby\/Rails\/Merb Meetup Group","lon":"-123.12000274658203","rsvpcount":"11","venue_name":"","photo_url":"http:\/\/photos1.meetupstatic.com\/photos\/event\/9\/0\/3\/global_3410307.jpeg","questions":[],"feecurrency":"USD","attendee_count":"0","venue_lon":"","id":"8912342","fee":"0.0","time":"Mon Nov 03 19:00:00 PDT 2008","feedesc":"","ismeetup":"1","updated":"Fri Oct 17 21:16:57 EDT 2008","event_url":"http:\/\/ruby.meetup.com\/112\/calendar\/8912342","description":"The meetup is now at WorkSpace (Suite 400, 21 Water Street).\r\n\r\n[b]I don't have a speaker yet!  If you want to talk, please email a talk title, a 1-paragraph talk description and a speaker bio to peter@ruboss.com.\r\n[\/b]\r\n\r\nIf I can't find a speaker with a Ruby topic, I have the following proposal for an open discussion.  It's not Ruby-specific, but many of us are doing startups so it may be interesting:\r\n\r\nPaul Graham (http:\/\/www.paulgraham.com\/badeconomy.html)\r\n\r\nvs.\r\n\r\nSequoia Capital (http:\/\/www.techcrunch.com\/2008\/10\/10\/sequoia-capitals-56-slide-powerpoint-presentation-of-doom\/)\r\n\r\nWho's right?  Or can both be right?\r\n\r\nAfter their meetup, some of us may head over to Irish Heather or Chill Winston for beer afterward.","name":"The Vancouver Ruby\/Rails November Meetup","venue_lat":"","lat":"49.279998779296875"},{"group_name":"The Michigan Ruby Users Group (Grand Rapids)","lon":"-85.66000366210938","rsvpcount":"2","venue_name":"","photo_url":"","questions":[],"feecurrency":"USD","attendee_count":"0","venue_lon":"","id":"8918080","fee":"0.0","time":"Tue Nov 04 18:00:00 EDT 2008","feedesc":"","ismeetup":"1","updated":"Tue Oct 07 19:06:49 EDT 2008","event_url":"http:\/\/ruby.meetup.com\/46\/calendar\/8918080","description":"","name":"The Michigan Ruby Users Group (Grand Rapids) November Meetup","venue_lat":"","lat":"42.869998931884766"},{"group_name":"srq.rb","lon":"-82.4800033569336","rsvpcount":"1","venue_name":"Cock & Bull Pub","photo_url":"","questions":[],"feecurrency":"USD","attendee_count":"0","venue_lon":"-82.451380","id":"8876657","fee":"0.0","time":"Wed Nov 05 19:00:00 EDT 2008","feedesc":"","ismeetup":"1","updated":"Wed Oct 01 20:10:22 EDT 2008","event_url":"http:\/\/ruby.meetup.com\/135\/calendar\/8876657","description":"We'll drink beer and lament the downfall of American hegemony and talk a little tech.","name":"srq.rb November Meetup","venue_lat":"27.325770","lat":"27.31999969482422"},{"group_name":"The Raleigh-area Ruby Brigade (raleigh.rb)","lon":"-78.62999725341797","rsvpcount":"0","venue_name":"","photo_url":"http:\/\/photos1.meetupstatic.com\/photos\/event\/3\/a\/c\/global_4488940.jpeg","questions":[],"feecurrency":"USD","attendee_count":"0","venue_lon":"","id":"8639251","fee":"0.0","time":"Thu Nov 06 24:00:00 EDT 2008","feedesc":"","ismeetup":"0","updated":"Thu Aug 28 08:53:11 EDT 2008","event_url":"http:\/\/ruby.meetup.com\/3\/calendar\/8639251","description":"http:\/\/rubyconf.org\/","name":"RubyConf 2008","venue_lat":"","lat":"35.939998626708984"},{"group_name":"ChicagoRuby.org - Chicago Ruby on Rails","lon":"-87.94000244140625","rsvpcount":"0","venue_name":"","photo_url":"http:\/\/photos1.meetupstatic.com\/photos\/event\/6\/8\/0\/global_4273664.jpeg","questions":[],"feecurrency":"USD","attendee_count":"0","venue_lon":"","id":"8852946","fee":"0.0","time":"Thu Nov 06 24:00:00 CDT 2008","feedesc":"","ismeetup":"0","updated":"Sun Sep 28 19:48:54 EDT 2008","event_url":"http:\/\/ruby.meetup.com\/77\/calendar\/8852946","description":"RubyConf 2008 in Orlando, FL\r\nhttp:\/\/rubyconf.org\/","name":"RubyConf 2008 in Orlando, FL","venue_lat":"","lat":"41.88999938964844"},{"group_name":"The Raleigh-area Ruby Brigade (raleigh.rb)","lon":"-78.62999725341797","rsvpcount":"8","venue_name":"","photo_url":"http:\/\/photos1.meetupstatic.com\/photos\/event\/3\/a\/c\/global_4488940.jpeg","questions":[],"feecurrency":"","attendee_count":"0","venue_lon":"","id":"8639263","fee":"0.0","time":"Thu Nov 06 18:00:00 EDT 2008","feedesc":"","ismeetup":"1","updated":"Thu Aug 28 08:54:51 EDT 2008","event_url":"http:\/\/ruby.meetup.com\/3\/calendar\/8639263","description":"This is a completely open, free-form, \"just show up with a laptop (or a friend with a laptop) and hack on some Ruby\" meeting. There's no agenda, and there's sure to be a great mix of coding and shooting the breeze about all things geeky, including our favorite language. Nathaniel will be showing up around 6 to grab something to eat and start hacking, and we'll do quick introductions around 6:30, but feel free to drop in whenever you can.\r\n\r\nSee you there!","name":"Hack Night","venue_lat":"","lat":"35.939998626708984"},{"group_name":"The Raleigh-area Ruby Brigade (raleigh.rb)","lon":"-78.62999725341797","rsvpcount":"0","venue_name":"","photo_url":"http:\/\/photos1.meetupstatic.com\/photos\/event\/3\/a\/c\/global_4488940.jpeg","questions":[],"feecurrency":"USD","attendee_count":"0","venue_lon":"","id":"8639253","fee":"0.0","time":"Fri Nov 07 24:00:00 EDT 2008","feedesc":"","ismeetup":"0","updated":"Thu Aug 28 08:53:42 EDT 2008","event_url":"http:\/\/ruby.meetup.com\/3\/calendar\/8639253","description":"http:\/\/rubyconf.org\/","name":"RubyConf 2008","venue_lat":"","lat":"35.939998626708984"},{"group_name":"ChicagoRuby.org - Chicago Ruby on Rails","lon":"-87.94000244140625","rsvpcount":"0","venue_name":"","photo_url":"http:\/\/photos1.meetupstatic.com\/photos\/event\/6\/8\/0\/global_4273664.jpeg","questions":[],"feecurrency":"USD","attendee_count":"0","venue_lon":"","id":"8852966","fee":"0.0","time":"Fri Nov 07 24:00:00 CDT 2008","feedesc":"","ismeetup":"0","updated":"Sun Sep 28 19:52:53 EDT 2008","event_url":"http:\/\/ruby.meetup.com\/77\/calendar\/8852966","description":"RubyConf 2008 in Orlando, FL\r\nhttp:\/\/rubyconf.org\/","name":"RubyConf 2008 in Orlando, FL","venue_lat":"","lat":"41.88999938964844"},{"group_name":"The Raleigh-area Ruby Brigade (raleigh.rb)","lon":"-78.62999725341797","rsvpcount":"0","venue_name":"","photo_url":"http:\/\/photos1.meetupstatic.com\/photos\/event\/3\/a\/c\/global_4488940.jpeg","questions":[],"feecurrency":"USD","attendee_count":"0","venue_lon":"","id":"8639255","fee":"0.0","time":"Sat Nov 08 24:00:00 EDT 2008","feedesc":"","ismeetup":"0","updated":"Thu Aug 28 08:53:53 EDT 2008","event_url":"http:\/\/ruby.meetup.com\/3\/calendar\/8639255","description":"http:\/\/rubyconf.org\/","name":"RubyConf 2008","venue_lat":"","lat":"35.939998626708984"},{"group_name":"ChicagoRuby.org - Chicago Ruby on Rails","lon":"-87.94000244140625","rsvpcount":"0","venue_name":"","photo_url":"http:\/\/photos1.meetupstatic.com\/photos\/event\/6\/8\/0\/global_4273664.jpeg","questions":[],"feecurrency":"USD","attendee_count":"0","venue_lon":"","id":"8852970","fee":"0.0","time":"Sat Nov 08 24:00:00 CDT 2008","feedesc":"","ismeetup":"0","updated":"Sun Sep 28 19:53:10 EDT 2008","event_url":"http:\/\/ruby.meetup.com\/77\/calendar\/8852970","description":"RubyConf 2008 in Orlando, FL\r\nhttp:\/\/rubyconf.org\/","name":"RubyConf 2008 in Orlando, FL","venue_lat":"","lat":"41.88999938964844"}],"meta":{"lon":"","count":10,"next":"http:\/\/api.meetup.com\/events\/?order=time&radius=25&topic=ruby&key=4824d125e1c13f6253694f65383d33&page=10&format=json&offset=1","link":"http:\/\/api.meetup.com\/events\/","total_count":45,"url":"http:\/\/api.meetup.com\/events\/?order=time&radius=25&topic=ruby&key=4824d125e1c13f6253694f65383d33&page=10&format=json&offset=0","id":"","title":"Meetup Events","updated":"2008-10-31 12:35:57 EDT","description":"API method for accessing meetup events","method":"Events","lat":""}}