{"results":[{"zip":"20861","lon":"-76.98999786376953","photo_url":"","link":"http:\/\/www.meetup.com\/Ashton-Ruby-Group\/","state":"MD","city":"Ashton","country":"us","id":"1307778","organizerProfileURL":"http:\/\/www.meetup.com\/members\/1176597\/","updated":"Mon Oct 27 17:53:56 EDT 2008","created":"Fri Oct 24 12:25:59 EDT 2008","description":"To meet regularly and learn from each other's experiences and goals using Ruby in many application contexts.","name":"Ashton Ruby Group","daysleft":"","members":"3","lat":"39.15999984741211"},{"zip":"92009","lon":"-117.2699966430664","photo_url":"","link":"http:\/\/ruby.meetup.com\/140\/","state":"CA","city":"Carlsbad","country":"us","id":"1285509","organizerProfileURL":"http:\/\/www.meetup.com\/members\/8063944\/","updated":"Tue Oct 21 14:39:00 EDT 2008","created":"Fri Sep 19 13:49:56 EDT 2008","description":"A gathering of like minded web developers, focusing primarily on Ruby, but open to other languages as well.","name":"North County Ruby Brigade","daysleft":"","members":"3","lat":"33.099998474121094"},{"zip":"","lon":"19.079999923706055","photo_url":"http:\/\/photos1.meetupstatic.com\/photos\/event\/1\/0\/9\/4\/global_5350244.jpeg","link":"http:\/\/www.meetup.com\/budapest-rb\/","state":"","city":"Budapest","country":"hu","id":"1271139","organizerProfileURL":"http:\/\/www.meetup.com\/members\/3928337\/","updated":"Thu Oct 30 07:05:39 EDT 2008","created":"Thu Aug 28 10:38:38 EDT 2008","description":"A budapest.rb Ruby fejleszto\"k és a technológiával ismerkedo\"k érdekében jött létre. A találkozók során a megismerhetjük a többi magyar Ruby fejleszto\"t, tanulhatunk egymástól, és megoszthatjuk saját tapasztalatainkat.\r\n\r\nA találkozókat havonta egy alkalommal rendezzük. Ilyenkor van 3 rövidebb (5-10 perc hosszú Lightning Talk) és egy picit hosszabb elo\"adás (fél óra). A rövid elo\"adások szélesítik a látókört és ízelíto\"t adnak, a hosszabb pedig mélyebb betekintést nyújt egy témába. Az elo\"adások után leheto\"ség van a keveredésre, beszélgetésre egymással és az elo\"adókkal. Ez a rész opcionális, de ero\"sen javasolt program.\r\n\r\nVárható témakörök: tervezési minták, hasznos gemek, minden ami Rails és más keretrendszerek, JRuby és más alternatív interpreterek, és amit még ti akartok.","name":"budapest.rb","daysleft":"","members":"83","lat":"47.5099983215332"},{"zip":"72701","lon":"-94.13999938964844","photo_url":"http:\/\/photos1.meetupstatic.com\/photos\/event\/1\/4\/9\/7\/global_5153271.jpeg","link":"http:\/\/www.meetup.com\/naruby\/","state":"AR","city":"Fayetteville","country":"us","id":"1256819","organizerProfileURL":"http:\/\/www.meetup.com\/members\/6145312\/","updated":"Sat Oct 25 19:41:04 EDT 2008","created":"Thu Aug 14 11:10:20 EDT 2008","description":"Meet other local Ruby programmers.","name":"Northwest Arkansas Ruby Brigade","daysleft":"","members":"7","lat":"36.04999923706055"},{"zip":"","lon":"2.3399999141693115","photo_url":"http:\/\/photos1.meetupstatic.com\/photos\/event\/7\/c\/1\/global_5113985.jpeg","link":"http:\/\/www.meetup.com\/ruby-137\/","state":"","city":"Paris","country":"fr","id":"1252905","organizerProfileURL":"http:\/\/www.meetup.com\/members\/1280136\/","updated":"Wed Oct 29 15:16:48 EDT 2008","created":"Sun Aug 10 23:47:57 EDT 2008","description":"Are you going to be in Paris?  Are you interested in Ruby and\/or Python?  Do you have a project you want to hack on?\r\n\r\nThe best way to learn is to share with others.  Getting a bunch of Ruby\/Python programmers in the same room is a great way to learn new tips and tricks, and all about the latest in the world of Ruby, Python, and beyond.\r\n\r\nI'm one of the organizers of the San Jose Ruby Hackfest and I've moved to Paris.  All are welcome!  Please make suggestions on topics of discussion and places to meet.  All you need is a laptop and something to hack on...","name":"Paris Ruby & Python Hackfest","daysleft":"","members":"19","lat":"48.86000061035156"},{"zip":"28226","lon":"-80.80999755859375","photo_url":"","link":"http:\/\/ruby.meetup.com\/136\/","state":"NC","city":"Charlotte","country":"us","id":"1229892","organizerProfileURL":"http:\/\/www.meetup.com\/members\/7686667\/","updated":"Fri Oct 03 19:11:50 EDT 2008","created":"Mon Jul 21 14:28:16 EDT 2008","description":"Meet other local Ruby programmers.","name":"Charlotte Ruby Meetup Group","daysleft":"","members":"23","lat":"35.11000061035156"},{"zip":"34232","lon":"-82.4800033569336","photo_url":"","link":"http:\/\/ruby.meetup.com\/135\/","state":"FL","city":"Sarasota","country":"us","id":"1222529","organizerProfileURL":"http:\/\/www.meetup.com\/members\/870301\/","updated":"Fri Oct 03 19:11:45 EDT 2008","created":"Mon Jul 14 11:10:00 EDT 2008","description":"Meet other local programmers interested in Ruby, Erlang, emerging web technologies, and stuff.","name":"srq.rb","daysleft":"","members":"29","lat":"27.31999969482422"},{"zip":"95825","lon":"-121.4000015258789","photo_url":"http:\/\/photos1.meetupstatic.com\/photos\/event\/1\/6\/3\/e\/global_4049694.jpeg","link":"http:\/\/ruby.meetup.com\/132\/","state":"CA","city":"Sacramento","country":"us","id":"1138715","organizerProfileURL":"http:\/\/www.meetup.com\/members\/2840665\/","updated":"Wed Oct 22 20:46:24 EDT 2008","created":"Tue May 06 19:27:43 EDT 2008","description":"Meet other local Ruby programmers.","name":"The Sacramento Ruby Meetup","daysleft":"","members":"31","lat":"38.59000015258789"},{"zip":"10026","lon":"-73.94999694824219","photo_url":"http:\/\/photos1.meetupstatic.com\/photos\/event\/1\/6\/a\/global_3744362.jpeg","link":"http:\/\/ruby.meetup.com\/131\/","state":"NY","city":"New York","country":"us","id":"1080699","organizerProfileURL":"http:\/\/www.meetup.com\/members\/3112717\/","updated":"Thu Oct 30 15:24:41 EDT 2008","created":"Wed Mar 26 10:39:44 EDT 2008","description":"Meet other local Ruby programmers.","name":"The New York Ruby Meetup","daysleft":"","members":"132","lat":"40.79999923706055"},{"zip":"23510","lon":"-76.29000091552734","photo_url":"http:\/\/photos1.meetupstatic.com\/photos\/event\/1\/7\/1\/7\/global_3557911.jpeg","link":"http:\/\/ruby.meetup.com\/130\/","state":"VA","city":"Norfolk","country":"us","id":"1068870","organizerProfileURL":"http:\/\/www.meetup.com\/members\/3695330\/","updated":"Fri Oct 31 12:27:57 EDT 2008","created":"Tue Mar 18 11:50:21 EDT 2008","description":"Welcome to the Hampton Roads Ruby Users Group (757.rb). An advocacy group for promoting the awareness\/use of the Ruby programming language and the Rails framework. Serving Hampton Roads (Norfolk, Virginia Beach, Chesapeake, Portsmouth, Suffolk, Hampton, Newport News, Yorktown and Williamsburg).\r\n\r\n* Homepage: http:\/\/757rb.org\/\r\n* Google Group: http:\/\/groups.google.com\/group\/757rb\r\n* Google Group Email: 757rb@googlegroups.com","name":"Hampton Roads Ruby Users Group (757.rb)","daysleft":"","members":"22","lat":"36.849998474121094"}],"meta":{"lon":"","count":10,"next":"http:\/\/api.meetup.com\/groups\/?order=ctime&radius=25&topic=ruby&key=4824d125e1c13f6253694f65383d33&page=10&format=json&offset=1","link":"http:\/\/api.meetup.com\/groups\/","total_count":52,"url":"http:\/\/api.meetup.com\/groups\/?order=ctime&radius=25&topic=ruby&key=4824d125e1c13f6253694f65383d33&page=10&format=json&offset=0","id":"","title":"Meetup Groups","updated":"2008-10-31 18:31:20 EDT","description":"API method for accessing meetup groups","method":"Groups","lat":""}}