{"results":[{"zip":"28270","lon":"-80.76000213623047","photo_url":"http:\/\/photos1.meetupstatic.com\/photos\/member\/1\/3\/3\/3\/member_2272915.jpeg","link":"http:\/\/www.meetup.com\/members\/4649231","state":"NC","city":"Charlotte","country":"us","visited":"Sat Sep 27 01:17:06 EDT 2008","id":"4649231","joined":"Thu Jul 24 22:13:10 EDT 2008","bio":"","name":"August","lat":"35.119998931884766"},{"zip":"28270","lon":"-80.76000213623047","photo_url":"http:\/\/photos1.meetupstatic.com\/photos\/member\/c\/b\/f\/member_993263.jpeg","link":"http:\/\/www.meetup.com\/members\/3170722","state":"NC","city":"Charlotte","country":"us","visited":"Fri Oct 17 13:26:08 EDT 2008","id":"3170722","joined":"Tue Sep 30 08:42:38 EDT 2008","bio":"","name":"Brian Blanton","lat":"35.119998931884766"},{"zip":"28104","lon":"-80.72000122070312","photo_url":"http:\/\/photos1.meetupstatic.com\/photos\/member\/8\/7\/a\/member_4670170.jpeg","link":"http:\/\/www.meetup.com\/members\/7976804","state":"NC","city":"Matthews","country":"us","visited":"Thu Sep 04 15:00:34 EDT 2008","id":"7976804","joined":"Thu Sep 04 15:00:34 EDT 2008","bio":"I am one of the few full time RoR developers in the area, and am always looking to spread the word on Ruby and Rails as well as meet others with the same appreciation for them that I have.","name":"Chris Beck","lat":"35.119998931884766"},{"zip":"28277","lon":"-80.80999755859375","photo_url":"","link":"http:\/\/www.meetup.com\/members\/6591797","state":"NC","city":"Charlotte","country":"us","visited":"Thu Jul 24 09:37:52 EDT 2008","id":"6591797","joined":"Thu Jul 24 09:37:52 EDT 2008","bio":"","name":"David Sheehan","lat":"35.060001373291016"},{"zip":"27516","lon":"-79.12000274658203","photo_url":"http:\/\/photos1.meetupstatic.com\/photos\/member\/7\/4\/d\/member_3385869.jpeg","link":"http:\/\/www.meetup.com\/members\/6498229","state":"NC","city":"Chapel Hill","country":"us","visited":"Tue Jul 29 20:35:45 EDT 2008","id":"6498229","joined":"Mon Jul 21 22:41:36 EDT 2008","bio":"","name":"derick","lat":"35.91999816894531"},{"zip":"27514","lon":"-79.04000091552734","photo_url":"http:\/\/photos1.meetupstatic.com\/photos\/member\/6\/8\/4\/member_4369668.jpeg","link":"http:\/\/www.meetup.com\/members\/7690053","state":"NC","city":"Chapel Hill","country":"us","visited":"Tue Aug 19 16:07:07 EDT 2008","id":"7690053","joined":"Mon Jul 21 22:46:02 EDT 2008","bio":"","name":"Dustin","lat":"35.93000030517578"},{"zip":"28269","lon":"-80.80999755859375","photo_url":"","link":"http:\/\/www.meetup.com\/members\/7828844","state":"NC","city":"Charlotte","country":"us","visited":"Sun Oct 05 20:01:53 EDT 2008","id":"7828844","joined":"Mon Aug 11 14:58:55 EDT 2008","bio":"","name":"Eddy","lat":"35.310001373291016"},{"zip":"28025","lon":"-80.58000183105469","photo_url":"http:\/\/photos1.meetupstatic.com\/photos\/member\/d\/5\/e\/member_3747422.jpeg","link":"http:\/\/www.meetup.com\/members\/7022074","state":"NC","city":"Concord","country":"us","visited":"Thu Sep 18 14:41:31 EDT 2008","id":"7022074","joined":"Thu Jul 24 19:41:34 EDT 2008","bio":"","name":"James Schorr","lat":"35.400001525878906"},{"zip":"28115","lon":"-80.81999969482422","photo_url":"http:\/\/photos1.meetupstatic.com\/photos\/member\/1\/3\/f\/6\/member_4445110.jpeg","link":"http:\/\/www.meetup.com\/members\/7780724","state":"NC","city":"Mooresville","country":"us","visited":"Fri Oct 31 18:58:09 EDT 2008","id":"7780724","joined":"Mon Aug 04 12:26:12 EDT 2008","bio":"","name":"Jared Pace","lat":"35.58000183105469"},{"zip":"29730","lon":"-81.0199966430664","photo_url":"http:\/\/photos1.meetupstatic.com\/photos\/member\/8\/7\/e\/member_4676174.jpeg","link":"http:\/\/www.meetup.com\/members\/7980875","state":"SC","city":"Rock Hill","country":"us","visited":"Thu Sep 11 10:01:19 EDT 2008","id":"7980875","joined":"Fri Sep 05 08:52:56 EDT 2008","bio":"Just looking into Ruby and wanting some info since there really isn't much out there.","name":"Jay Ward","lat":"34.93000030517578"}],"meta":{"lon":"","count":10,"link":"http:\/\/api.meetup.com\/members\/","next":"http:\/\/api.meetup.com\/members\/?order=name&topic=ruby&key=4824d125e1c13f6253694f65383d33&groupnum=136&page=10&format=json&offset=1","total_count":23,"url":"http:\/\/api.meetup.com\/members\/?order=name&topic=ruby&key=4824d125e1c13f6253694f65383d33&groupnum=136&page=10&format=json&offset=0","id":"","title":"Meetup Members","updated":"2008-10-01 06:36:21 EDT","description":"API method for accessing members of Meetup Groups","method":"Members","lat":""}}