{"results":[{"member_url":"http:\/\/www.meetup.com\/members\/3845915","albumtitle":"Meetup Group Photo Album","created":"Thu Oct 30 07:00:24 EDT 2008","photo_url":"http:\/\/photos1.meetupstatic.com\/photos\/event\/e\/9\/e\/global_6099742.jpeg","link":"http:\/\/www.meetup.com\/erloungerdu\/\/photos\/470662\/","descr":""},{"member_url":"http:\/\/www.meetup.com\/members\/7636957","albumtitle":"Joint Meetup with Japan's Ruby Business Commons","created":"Thu Sep 25 02:34:39 EDT 2008","photo_url":"http:\/\/photos1.meetupstatic.com\/photos\/event\/4\/8\/7\/global_5641159.jpeg","link":"http:\/\/www.meetup.com\/silicon-valley-ruby\/\/photos\/445175\/","descr":"Chisako's presentation"},{"member_url":"http:\/\/www.meetup.com\/members\/4013131","albumtitle":"The Seacoast NH Ruby and Rails September Meetup","created":"Thu Sep 18 20:29:03 EDT 2008","photo_url":"http:\/\/photos1.meetupstatic.com\/photos\/event\/a\/2\/e\/global_5558606.jpeg","link":"http:\/\/www.meetup.com\/nhruby\/\/photos\/440535\/","descr":"NH Ruby-- Rails Rumble"},{"member_url":"http:\/\/www.meetup.com\/members\/3928337","albumtitle":"budapest.rb begins","created":"Thu Sep 18 12:31:25 EDT 2008","photo_url":"http:\/\/photos1.meetupstatic.com\/photos\/event\/1\/3\/0\/3\/global_5554867.jpeg","link":"http:\/\/www.meetup.com\/budapest-rb\/\/photos\/440279\/","descr":""},{"member_url":"http:\/\/www.meetup.com\/members\/3928337","albumtitle":"Meetup Group Photo Album","created":"Sun Aug 31 16:49:46 EDT 2008","photo_url":"http:\/\/photos1.meetupstatic.com\/photos\/event\/1\/0\/9\/4\/global_5350244.jpeg","link":"http:\/\/www.meetup.com\/budapest-rb\/\/photos\/426597\/","descr":""},{"member_url":"http:\/\/www.meetup.com\/members\/1280136","albumtitle":"Meetup Group Photo Album","created":"Mon Aug 11 00:13:01 EDT 2008","photo_url":"http:\/\/photos1.meetupstatic.com\/photos\/event\/7\/c\/1\/global_5113985.jpeg","link":"http:\/\/www.meetup.com\/ruby-137\/\/photos\/414874\/","descr":""},{"member_url":"http:\/\/www.meetup.com\/members\/5749908","albumtitle":"Ruby on Rails Class @ Marakana","created":"Sat Aug 09 16:12:38 EDT 2008","photo_url":"http:\/\/photos1.meetupstatic.com\/photos\/event\/1\/7\/1\/8\/global_5087912.jpeg","link":"http:\/\/www.meetup.com\/sfruby\/\/photos\/413582\/","descr":"Great Ruby on Rails class taught by Matt Knox of RubyU.  Thanks for everything Matt.  Classroom space generously provided by Marko of Marakana (www.marakana.com)."},{"member_url":"http:\/\/www.meetup.com\/members\/4362464","albumtitle":"Meetup Group Photo Album","created":"Wed Jul 16 10:24:41 EDT 2008","photo_url":"http:\/\/photos1.meetupstatic.com\/photos\/event\/1\/6\/6\/7\/global_4811735.jpeg","link":"http:\/\/www.meetup.com\/state-college-ruby\/\/photos\/397500\/","descr":""},{"member_url":"http:\/\/www.meetup.com\/members\/4362464","albumtitle":"An Informal Introduction to Ruby on Rails","created":"Wed Jul 16 10:20:42 EDT 2008","photo_url":"http:\/\/photos1.meetupstatic.com\/photos\/event\/1\/6\/3\/8\/global_4811688.jpeg","link":"http:\/\/www.meetup.com\/state-college-ruby\/\/photos\/397496\/","descr":"The door at 234 E College Ave to go upstairs to the Blue Line"},{"member_url":"http:\/\/www.meetup.com\/members\/4236512","albumtitle":"Meetup Group Photo Album","created":"Sun Jun 29 22:23:31 EDT 2008","photo_url":"http:\/\/photos1.meetupstatic.com\/photos\/event\/d\/1\/a\/global_4629354.jpeg","link":"http:\/\/ruby.meetup.com\/113\/\/photos\/386661\/","descr":""}],"meta":{"lon":"","count":10,"next":"http:\/\/api.meetup.com\/photos\/?order=photo_album_id&topic=ruby&key=4824d125e1c13f6253694f65383d33&page=10&format=json&offset=1","link":"http:\/\/api.meetup.com\/photos\/","total_count":58,"url":"http:\/\/api.meetup.com\/photos\/?order=photo_album_id&topic=ruby&key=4824d125e1c13f6253694f65383d33&page=10&format=json&offset=0","id":"","title":"Meetup Photos","updated":"2008-10-30 07:00:25 EDT","description":"API method for accessing meetup photos","method":"Photos","lat":""}}